…
study_cln
```

    ## # A tibble: 160 × 4
    ##    subject_id arm   week   observation_score
    ##    <chr>      <chr> <fct>              <dbl>
    ##  1 con_01     con   week_1              0.2 
    ##  2 con_01     con   week_2             -1.31
    ##  3 con_01     con   week_3              0.66
    ##  4 con_01     con   week_4              1.96
    ##  5 con_01     con   week_5              0.23
    ##  6 con_01     con   week_6              1.09
    ##  7 con_01     con   week_7              0.05
    ##  8 con_01     con   week_8              1.94
    ##  9 con_02     con   week_1              1.13
    ## 10 con_02     con   week_2             -0.88
    ## # … with 150 more rows
…
    ## # A tibble: 1 × 5
    ##   Sepal.Length Sepal.Width Petal.Length Petal.Width Species
    ##          <int>       <int>        <int>       <int>   <int>
    ## 1            0           0            0           0       0

``` r
#No more NAs!

iris_with_missing%>%
  map_df(~fill_in_missing(.x))
```

    ## # A tibble: 150 × 5
    ##    Sepal.Length Sepal.Width Petal.Length Petal.Width Species
    ##           <dbl>       <dbl>        <dbl>       <dbl> <chr>  
    ##  1         5.1          3.5         1.4         0.2  setosa 
    ##  2         4.9          3           1.4         0.2  setosa 
    ##  3         4.7          3.2         1.3         0.2  setosa 
    ##  4         4.6          3.1         1.5         1.19 setosa 
    ##  5         5            3.6         1.4         0.2  setosa 
    ##  6         5.4          3.9         1.7         0.4  setosa 
    ##  7         5.82         3.4         1.4         0.3  setosa 
    ##  8         5            3.4         1.5         0.2  setosa 
    ##  9         4.4          2.9         1.4         0.2  setosa 
    ## 10         4.9          3.1         3.77        0.1  setosa 
    ## # … with 140 more rows
